Project 1 Website
…
latin <- filter(spotify_songs, playlist_genre == "latin")
mean(latin$energy, na.rm = TRUE)

## [1] 0.7083125

mean(latin$acousticness, na.rm = TRUE)

## [1] 0.2109204

Calculate the average duration of song (in minutes) across all subgenres. Which subgenre has the longest song on average?

subgenre <- group_by(spotify_songs, playlist_subgenre) %>% summarize(submeans = mean(duration_ms, na.rm = TRUE)) %>% arrange(desc(submeans))
subgenre

## # A tibble: 24 × 2
##    playlist_subgenre         submeans
##    <chr>                        <dbl>
##  1 new jack swing             275129.
##  2 classic rock               256667.
##  3 album rock                 255363.
##  4 progressive electro house  254006.
##  5 southern hip hop           247029.
##  6 permanent wave             244211.
##  7 hard rock                  239897.
##  8 neo soul                   239198.
##  9 electropop                 235877.
## 10 urban contemporary         228450.
## # … with 14 more rows
…
## 5. For each year released, calculate the mean of at least 6 audio features or descriptors
means_by_year <- group_by(uniq, year_released) %>% 
        summarize(danceability = mean(danceability, na.rm = TRUE),
                  energy = mean(energy, na.rm = TRUE),
                  loudness = mean(loudness, na.rm = TRUE),
                  speechiness = mean(speechiness, na.rm = TRUE),
                  valence = mean(valence, na.rm = TRUE),
                  duration_min = mean(duration_min, na.rm = TRUE)) %>%
        arrange(desc(year_released))

## 6. Convert to a long dataset with feature and mean_score columns
means_by_year <- pivot_longer(means_by_year, danceability:duration_min, names_to = "feature", values_to = "mean_score")
means_by_year

## # A tibble: 246 × 3
##    year_released feature      mean_score
##    <chr>         <chr>             <dbl>
##  1 2020          danceability      0.667
##  2 2020          energy            0.673
##  3 2020          loudness         -6.88 
##  4 2020          speechiness       0.115
##  5 2020          valence           0.471
##  6 2020          duration_min      3.24 
##  7 2019          danceability      0.674
##  8 2019          energy            0.697
##  9 2019          loudness         -6.46 
## 10 2019          speechiness       0.115
## # … with 236 more rows
…
